{
  "status": "ok",
  "message-type": "members",
  "message-version": "1.0.0",
  "message": {
    "totals": {
      "Journal articles": 4982,
      "Reports": 8
    },
    "Coverage": {
      "Journal articles": [
        {
          "name": "References",
          "info": "References<br/><br/>Percentage of content items that include reference lists in their metadata.<br/><br/><a href=\"https://www.crossref.org/education/metadata-stewardship/reports/participation-reports#00190\">Why is this important?<br/><a href=\"https://www.crossref.org/education/metadata-stewardship/reports/participation-reports#00191\">Where can I learn more?<br/><a href=\"https://www.crossref.org/education/metadata-stewardship/reports/participation-reports#00192\">How can I improve this score?</a>",
          "percentage": 8
        },
        {
          "name": "ORCID IDs",
          "info": "ORCID IDs<br/><br/>Percentage of content containing ORCID IDs.<br/> These IDs enable users to precisely identify a researcher’s work - even when that researcher shares a name with someone else or if they change their name.<br/><br/><a href=\"https://www.crossref.org/education/metadata-stewardship/reports/participation-reports#00198\">Why is this important?<br/><a href=\"https://www.crossref.org/education/metadata-stewardship/reports/participation-reports#00199\">Where can I learn more?<br/><a href=\"https://www.crossref.org/education/metadata-stewardship/reports/participation-reports#00200\">How can I improve this score?</a>",
          "percentage": 4
        },
        {
          "name": "Funder Registry IDs",
          "info": "Funder Registry IDs<br/><br/>The percentage of registered content that contains the name and Funder Registry ID of at least one of the organizations that funded the research. <br/><br/><a href=\"https://www.crossref.org/education/metadata-stewardship/reports/participation-reports#00202\">Why is this important?<br/><a href=\"https://www.crossref.org/education/metadata-stewardship/reports/participation-reports#00203\">Where can I learn more?<br/><a href=\"https://www.crossref.org/education/metadata-stewardship/reports/participation-reports#00204\">How can I improve this score?</a>",
          "percentage": 6
        },
        {
          "name": "Funding award numbers",
          "info": "Funding award numbers<br/><br/>The percentage of registered content that contains at least one funding award number - a number assigned by the funding organization to identify the specific piece of funding (the award or grant). <br/><br/><a href=\"https://www.crossref.org/education/metadata-stewardship/reports/participation-reports#00206\">Why is this important?<br/><a href=\"https://www.crossref.org/education/metadata-stewardship/reports/participation-reports#00207\">Where can I learn more?<br/><a href=\"https://www.crossref.org/education/metadata-stewardship/reports/participation-reports#00208\">How can I improve this score?</a>",
          "percentage": 5
        },
        {
          "name": "Crossmark enabled",
          "info": "Crossmark enabled<br/><br/>Percentage of content using the Crossmark service, which gives readers quick and easy access to the current status of a piece of content - whether it’s been updated, corrected or retracted. <br/><br/><a href=\"https://www.crossref.org/education/metadata-stewardship/reports/participation-reports#00210\">Why is this important?<br/><a href=\"https://www.crossref.org/education/metadata-stewardship/reports/participation-reports#00211\">Where can I learn more?<br/><a href=\"https://www.crossref.org/education/metadata-stewardship/reports/participation-reports#00212\">How can I improve this score?</a>",
          "percentage": 0
        },
        {
          "name": "Text mining URLs",
          "info": "Text mining URLs<br/><br/>The percentage of registered content containing full text URLs in the metadata to help researchers easily locate your content for text and data mining.<br/><br/><a href=\"https://www.crossref.org/education/metadata-stewardship/reports/participation-reports#00214\">Why is this important?<br/><a href=\"https://www.crossref.org/education/metadata-stewardship/reports/participation-reports#00215\">Where can I learn more?<br/><a href=\"https://www.crossref.org/education/metadata-stewardship/reports/participation-reports#00216\">How can I improve this score?</a>",
          "percentage": 100
        },
        {
          "name": "License URLs",
          "info": "License URLs<br/><br/>The percentage of registrations that contain URLs that point to a license that explains the terms and conditions under which readers can access content.<br/><br/><a href=\"https://www.crossref.org/education/metadata-stewardship/reports/participation-reports#00218\">Why is this important?<br/><a href=\"https://www.crossref.org/education/metadata-stewardship/reports/participation-reports#00219\">Where can I learn more?<br/><a href=\"https://www.crossref.org/education/metadata-stewardship/reports/participation-reports#00220\">How can I improve this score?</a>",
          "percentage": 67
        },
        {
          "name": "Similarity Check URLs",
          "info": "Similarity Check URLs<br/><br/>The percentage of content registered that includes Similarity Check URLs, enabling iThenticate to index the content and you to use the Similarity Check service and efficiently check your content for plagiarism. <br/><br/><a href=\"https://www.crossref.org/education/metadata-stewardship/reports/participation-reports#00222\">Why is this important?<br/><a href=\"https://www.crossref.org/education/metadata-stewardship/reports/participation-reports#00223\">Where can I learn more?<br/><a href=\"https://www.crossref.org/education/metadata-stewardship/reports/participation-reports#00224\">How can I improve this score?</a>",
          "percentage": 100
        },
        {
          "name": "Abstracts",
          "info": "Abstracts<br/><br/>Percentage of content that includes the abstract in the metadata, giving further insights into the content of the work.<br/><br/><a href=\"https://www.crossref.org/education/metadata-stewardship/reports/participation-reports#00226\">Why is this important?<br/><a href=\"https://www.crossref.org/education/metadata-stewardship/reports/participation-reports#00227\">Where can I learn more?<br/><a href=\"https://www.crossref.org/education/metadata-stewardship/reports/participation-reports#00228\">How can I improve this score?</a>",
          "percentage": 90
        }
      ],
      "Reports": [
        {
          "name": "ORCID IDs",
          "info": "ORCID IDs<br/><br/>Percentage of content containing ORCID IDs.<br/> These IDs enable users to precisely identify a researcher’s work - even when that researcher shares a name with someone else or if they change their name.<br/><br/><a href=\"https://www.crossref.org/education/metadata-stewardship/reports/participation-reports#00198\">Why is this important?<br/><a href=\"https://www.crossref.org/education/metadata-stewardship/reports/participation-reports#00199\">Where can I learn more?<br/><a href=\"https://www.crossref.org/education/metadata-stewardship/reports/participation-reports#00200\">How can I improve this score?</a>",
          "percentage": 6
        },
        {
          "name": "Crossmark enabled",
          "info": "Crossmark enabled<br/><br/>Percentage of content using the Crossmark service, which gives readers quick and easy access to the current status of a piece of content - whether it’s been updated, corrected or retracted. <br/><br/><a href=\"https://www.crossref.org/education/metadata-stewardship/reports/participation-reports#00210\">Why is this important?<br/><a href=\"https://www.crossref.org/education/metadata-stewardship/reports/participation-reports#00211\">Where can I learn more?<br/><a href=\"https://www.crossref.org/education/metadata-stewardship/reports/participation-reports#00212\">How can I improve this score?</a>",
          "percentage": 0
        },
        {
          "name": "Text mining URLs",
          "info": "Text mining URLs<br/><br/>The percentage of registered content containing full text URLs in the metadata to help researchers easily locate your content for text and data mining.<br/><br/><a href=\"https://www.crossref.org/education/metadata-stewardship/reports/participation-reports#00214\">Why is this important?<br/><a href=\"https://www.crossref.org/education/metadata-stewardship/reports/participation-reports#00215\">Where can I learn more?<br/><a href=\"https://www.crossref.org/education/metadata-stewardship/reports/participation-reports#00216\">How can I improve this score?</a>",
          "percentage": 0
        },
        {
          "name": "License URLs",
          "info": "License URLs<br/><br/>The percentage of registrations that contain URLs that point to a license that explains the terms and conditions under which readers can access content.<br/><br/><a href=\"https://www.crossref.org/education/metadata-stewardship/reports/participation-reports#00218\">Why is this important?<br/><a href=\"https://www.crossref.org/education/metadata-stewardship/reports/participation-reports#00219\">Where can I learn more?<br/><a href=\"https://www.crossref.org/education/metadata-stewardship/reports/participation-reports#00220\">How can I improve this score?</a>",
          "percentage": 0
        },
        {
          "name": "Similarity Check URLs",
          "info": "Similarity Check URLs<br/><br/>The percentage of content registered that includes Similarity Check URLs, enabling iThenticate to index the content and you to use the Similarity Check service and efficiently check your content for plagiarism. <br/><br/><a href=\"https://www.crossref.org/education/metadata-stewardship/reports/participation-reports#00222\">Why is this important?<br/><a href=\"https://www.crossref.org/education/metadata-stewardship/reports/participation-reports#00223\">Where can I learn more?<br/><a href=\"https://www.crossref.org/education/metadata-stewardship/reports/participation-reports#00224\">How can I improve this score?</a>",
          "percentage": 0
        }
      ]
    }
  }
}